…
+                              R = 2, 
+                              seed = 123)
> 
> plot(x=mod_1_uni_1_girf_big, plot_type = "density")
> plot(x=mod_1_uni_1_girf_big, plot_type = "line", n_simu = 1:50, add_legend =FALSE)
> 
> ## Simple, given shocks
> models_ar_setar %>% 
+   mutate(girf = map2(object, lag, ~GIRF(object=.x, n.ahead = 3,
+                                         hist_li = list(rep(1.6, .y)),
+                                         shock_li = list(0.01), R = 2, seed = 123) %>% as_tibble)) %>% 
+   select(-object) %>% 
+   unnest(girf) %>% 
+   as_tibble()
# A tibble: 128 x 14
     lag include model nthresh thDelay n_simu hist_x1_l1 shock_var1 n.ahead
   <dbl> <chr>   <chr>   <int>   <int>  <int>      <dbl>      <dbl>   <int>
 1     1 both    line…      NA      NA      1        1.6       0.01       0
 2     1 both    line…      NA      NA      1        1.6       0.01       1
 3     1 both    line…      NA      NA      1        1.6       0.01       2
 4     1 both    line…      NA      NA      1        1.6       0.01       3
 5     1 const   line…      NA      NA      1        1.6       0.01       0
 6     1 const   line…      NA      NA      1        1.6       0.01       1
 7     1 const   line…      NA      NA      1        1.6       0.01       2
 8     1 const   line…      NA      NA      1        1.6       0.01       3
 9     1 none    line…      NA      NA      1        1.6       0.01       0
10     1 none    line…      NA      NA      1        1.6       0.01       1
# … with 118 more rows, and 5 more variables: var <fct>, sim_1 <dbl>,
#   sim_2 <dbl>, girf <dbl>, hist_x1_l2 <dbl>
> 
> ## Simple, random
> models_ar_setar %>% 
+   mutate(girf = map(object, ~GIRF(object=., n.ahead = 3, n.hist = 3, n.shock = 3,
+                                   R = 2, seed = 123) %>% as_tibble)) %>% 
+   select(-object) %>% 
+   unnest(girf) %>% 
+   as_tibble()
# A tibble: 1,152 x 14
     lag include model nthresh thDelay n_simu hist_x1_l1 shock_var1 n.ahead
   <dbl> <chr>   <chr>   <int>   <int>  <int>      <dbl>      <dbl>   <int>
 1     1 both    line…      NA      NA      1        1.8       1.19       0
 2     1 both    line…      NA      NA      1        1.8       1.19       1
 3     1 both    line…      NA      NA      1        1.8       1.19       2
 4     1 both    line…      NA      NA      1        1.8       1.19       3
 5     1 both    line…      NA      NA      2        1.4       1.19       0
 6     1 both    line…      NA      NA      2        1.4       1.19       1
 7     1 both    line…      NA      NA      2        1.4       1.19       2
 8     1 both    line…      NA      NA      2        1.4       1.19       3
 9     1 both    line…      NA      NA      3        2.2       1.19       0
10     1 both    line…      NA      NA      3        2.2       1.19       1
# … with 1,142 more rows, and 5 more variables: var <fct>, sim_1 <dbl>,
#   sim_2 <dbl>, girf <dbl>, hist_x1_l2 <dbl>
…
4       3 cpiUSA 56.93175 56.80123 0.13052292
5       4 cpiUSA 57.21324 57.06854 0.14469542
6       5 cpiUSA 57.35781 57.19943 0.15837356
> plot(x=gi_out, var = "dolcan")
> plot(x=gi_out, var = "cpiUSA")
> 
> ## Simple, random
> models_multivariate %>% 
+   # head(2) %>% 
+   mutate(girf = map(object, ~GIRF(object=., n.ahead = 3, n.hist = 3, n.shock = 3,
+                                   R = 2, seed = 123) %>% head(2))) %>% 
+   select(-object) %>% 
+   unnest(girf) %>% 
+   as_tibble()
# A tibble: 96 x 19
     lag include model object_vars nthresh n_simu hist_x1_l1 hist_x2_l1
   <dbl> <chr>   <chr> <list>        <int>  <int>      <dbl>      <dbl>
 1     1 both    VAR   <varest>         NA      1       1.17       55.6
 2     1 both    VAR   <varest>         NA      1       1.17       55.6
 3     1 const   VAR   <varest>         NA      1       1.17       55.6
 4     1 const   VAR   <varest>         NA      1       1.17       55.6
 5     1 none    VAR   <varest>         NA      1       1.17       55.6
 6     1 none    VAR   <varest>         NA      1       1.17       55.6
 7     1 trend   VAR   <varest>         NA      1       1.17       55.6
 8     1 trend   VAR   <varest>         NA      1       1.17       55.6
 9     2 both    VAR   <varest>         NA      1       1.16       55.1
10     2 both    VAR   <varest>         NA      1       1.16       55.1
# … with 86 more rows, and 11 more variables: shock_var1 <dbl>,
#   shock_var2 <dbl>, n.ahead <int>, var <fct>, sim_1 <dbl>, sim_2 <dbl>,
#   girf <dbl>, hist_x1_l2 <dbl>, hist_x2_l2 <dbl>, hist_x1_l3 <dbl>,
#   hist_x2_l3 <dbl>
…
