…
── Conflicts ────────────────────────────────────────── tidyverse_conflicts() ──
✖ dplyr::filter() masks stats::filter()
✖ dplyr::lag()    masks stats::lag()
> library(collateral)
> 
> ############################
> ### Load data
> ############################
> path_mod_multi <- system.file("inst/testdata/models_multivariate.rds", package = "tsDyn")
> if(path_mod_multi=="") path_mod_multi <- system.file("testdata/models_multivariate.rds", package = "tsDyn")
> 
> models_multivariate <- readRDS(path_mod_multi)
> 
> models_multivariate
# A tibble: 48 x 6
     lag include model object     object_vars  nthresh
   <dbl> <chr>   <chr> <list>     <list>         <int>
 1     1 both    VAR   <S3: VAR>  <S3: varest>      NA
 2     1 const   VAR   <S3: VAR>  <S3: varest>      NA
 3     1 none    VAR   <S3: VAR>  <S3: varest>      NA
 4     1 trend   VAR   <S3: VAR>  <S3: varest>      NA
 5     2 both    VAR   <S3: VAR>  <S3: varest>      NA
 6     2 const   VAR   <S3: VAR>  <S3: varest>      NA
 7     2 none    VAR   <S3: VAR>  <S3: varest>      NA
 8     2 trend   VAR   <S3: VAR>  <S3: varest>      NA
 9     1 both    VECM  <S3: VECM> <NULL>            NA
10     1 const   VECM  <S3: VECM> <S4: ca.jo>       NA
# … with 38 more rows
…
 8     1 trend   VAR        NA <S3: V… <S3: vares… FALSE <S3:… <S3: va… <S3: va…
 9     2 both    VAR        NA <S3: V… <S3: vares… TRUE  <S3:… <S3: va… <S3: va…
10     2 both    VAR        NA <S3: V… <S3: vares… FALSE <S3:… <S3: va… <S3: va…
11     2 const   VAR        NA <S3: V… <S3: vares… TRUE  <S3:… <S3: va… <S3: va…
12     2 const   VAR        NA <S3: V… <S3: vares… FALSE <S3:… <S3: va… <S3: va…
13     2 none    VAR        NA <S3: V… <S3: vares… TRUE  <S3:… <S3: va… <S3: va…
14     2 none    VAR        NA <S3: V… <S3: vares… FALSE <S3:… <S3: va… <S3: va…
15     2 trend   VAR        NA <S3: V… <S3: vares… TRUE  <S3:… <S3: va… <S3: va…
16     2 trend   VAR        NA <S3: V… <S3: vares… FALSE <S3:… <S3: va… <S3: va…
> 
> ## show head of irf any
> map_df(models_IRF_any$irf, ~ head(.$irf[[1]], 2) %>%  as_tibble) %>% 
+   as.data.frame() %>% 
+   as_tibble()
# A tibble: 32 x 3
   dolcan     cpiUSA   cpiCAN
    <dbl>      <dbl>    <dbl>
 1 0.0129 -0.00939   -0.0180 
 2 0.0127 -0.0118    -0.0180 
 3 1       0          0      
 4 0.981  -0.186      0.0138 
 5 0.0129 -0.00886   -0.0151 
 6 0.0127 -0.0111    -0.0142 
 7 1       0          0      
 8 0.982  -0.175      0.0751 
 9 0.0129 -0.00440   -0.0119 
10 0.0129 -0.0000607 -0.00625
# … with 22 more rows
…
