…
+   mutate(irf_irf = map(irf, ~ head(.$irf[[1]], 5)),
+          irf_low = map(irf, ~ head(.$Lower[[1]], 5)),
+          irf_upp = map(irf, ~ head(.$Upper[[1]], 5))) %>% 
+   select(-irf) %>% 
+   gather(irf_stat, value, irf_irf, irf_low, irf_upp) %>% 
+   mutate(value = map(value, ~tibble(x=.) %>% 
+                           mutate(n.ahead = 0:4))) %>% 
+   select(-object) %>% 
+   unnest(value) %>% 
+   spread(irf_stat, x)
> 
> df_all %>% 
+   filter(n.ahead %in% c( 1)) %>% 
+   as_tibble()
# A tibble: 56 x 10
     lag include model  nthresh thDelay regime n.ahead irf_irf irf_low irf_upp
   <dbl> <chr>   <chr>    <int>   <int> <chr>    <int>   <dbl>   <dbl>   <dbl>
 1     1 both    linear      NA      NA all          1   0.529  0.325    0.620
 2     1 both    setar        1       0 H            1   0.527 -0.564    0.566
 3     1 both    setar        1       0 L            1   0.883 -3.27    -0.294
 4     1 both    setar        2       0 H            1   0.935  0.464    1.06 
 5     1 both    setar        2       0 L            1  -0.358 -1.20    -0.697
 6     1 const   linear      NA      NA all          1   0.586  0.362    0.714
 7     1 const   setar        1       0 H            1   0.910  0.290    1.27 
 8     1 const   setar        1       0 L            1   0.944  0.184    2.09 
 9     1 const   setar        2       0 H            1   1.02  -0.0806   1.11 
10     1 const   setar        2       0 L            1   0.193 -0.643    2.32 
# … with 46 more rows
…
