…
7: 
With the threshold you gave (-3.19877483971203) there is a regime with less than trim=15% observations (10.18%, 89.82%, )
 
8: 
With the threshold you gave (-2.72533309207574) there is a regime with less than trim=15% observations (10.64%, 89.36%, )
 
> 
> 
> ### show F tests ###
> res %>% 
+   mutate(Ftests = map(dat, ~as_tibble(.$Ftests %>%  t))) %>% 
+   select(-dat) %>% 
+   unnest(Ftests)
# A tibble: 24 x 7
   include   lag thDelay test  `1vs2` `1vs3` `2vs3`
   <chr>   <int>   <int> <chr>  <dbl>  <dbl>  <dbl>
 1 both        1       0 1vs     5.16   10.2   5.01
 2 both        1       0 2vs3    5.16   10.2   5.01
 3 both        2       0 1vs    15.0    28.8  13.4 
 4 both        2       0 2vs3   15.0    28.8  13.4 
 5 both        2       1 1vs    21.0    27.6   6.28
 6 both        2       1 2vs3   21.0    27.6   6.28
 7 const       1       0 1vs     5.60   13.4   7.67
 8 const       1       0 2vs3    5.60   13.4   7.67
 9 const       2       0 1vs    15.0    28.4  12.9 
10 const       2       0 2vs3   15.0    28.4  12.9 
# … with 14 more rows
> 
> res %>% 
+   mutate(Ftests = map(dat, ~as_tibble(.$SSRs %>%  t))) %>% 
+   select(-dat) %>% 
+   unnest(Ftests)
# A tibble: 24 x 7
   include   lag thDelay test     V1    V2    V3
   <chr>   <int>   <int> <chr> <dbl> <dbl> <dbl>
 1 both        1       0 1vs    606.  599.  593.
 2 both        1       0 2vs3   606.  599.  593.
 3 both        2       0 1vs    533.  516.  501.
 4 both        2       0 2vs3   533.  516.  501.
 5 both        2       1 1vs    533.  509.  502.
 6 both        2       1 2vs3   533.  509.  502.
 7 const       1       0 1vs    609.  601.  591.
 8 const       1       0 2vs3   609.  601.  591.
 9 const       2       0 1vs    535.  517.  503.
10 const       2       0 2vs3   535.  517.  503.
# … with 14 more rows
…
